{
  "59902": [
    {
      "title": "Metis Sepolia",
      "symbol": "tMetis",
      "explorer": "https://sepolia-explorer.metisdevops.link",
      "name": "metis-sepolia",
      "chainId": "59902",
      "contracts": {
        "Forwarder": {
          "address": "0x8A6bF190eAc2211860b50A71966F7BCDd1B4F545"
        },
        "Penalizer": {
          "address": "0xd4977775eFcfBb8798F7F4c3490cb2AD6b0Bd830"
        },
        "RelayHub": {
          "address": "0xc2469819ec378f7C39F4bEd882c243dcFA00a964"
        },
        "RelayRegistrar": {
          "address": "0x6B4daDbFDa2Ca44C96c8f5B88b4087147eE6d44B"
        },
        "StakeManager": {
          "address": "0x5F58A3E251FB34F132A38fB8B9Eb3b2709D798C7"
        },
        "WrappedEthToken": {
          "address": "0x60c15166F3B90F1aA375BA3e853701FAf9c40348"
        },
        "TestPaymasterEverythingAccepted": {
          "address": "0xAffAd155D6BEDBbC0b9c0c1E8332FF70cf08F060"
        }
      }
    }
  ]
}
